@startuml
card "my-team-config project" as myteamconfig {
    component "GPC" as gpc
    artifact "Project Variable Secrets" as secret {
        file "secret1" as secret1
        file "secret2" as secret2
        file "secret3" as secret3
        secret1 --> gpc
        secret2 --> gpc
        secret3 --> gpc
    }
    collections "config files" as config
    config -> gpc
}
database project1
database project2
database project3
database " ... " as projects
gpc --> project1
gpc --> project2
gpc -[hidden]-> project3
gpc --> projects
@enduml
